{
    "data": [
        {
            "seriNum": 233333,
            "incidentNameText": "哈哈哈哈哈哈",
            "level": "high",
            "createdTime": "2023-01-18"
          },
          {
            "seriNum": 666666,
            "incidentNameText": "什么动静",
            "level": "high",
            "createdTime": "2023-01-19"
          }
    ],
    "count": 100,
    "totalPage": 20,
    "incidentPageCount":{
        "closedCount": 300,
        "pendingCount": 100,
        "processingCount": 200
    },
    "conditions":{
        "pageSize": 5,
        "currentPage": 1
    }
}